Text Analysis Of Corporate Reponsibility Reports
…
The purpose is to analyse several previous annual Corporate Reponsibility Reports (CRRs) of a large bank using text mining to understand if these reflect changes in emphasis or importance of topics to the firm over the period.

I owe a debt of gratitude to the wonderful Text Mining With R book by Julia Silge and David Robinson.

Load a list of our words of interest (business sentiment / topic analysis)

hot_list <-  read_excel("CRR Custom Words.xlsx", sheet = "hot_words")
hot_words <-
  hot_list %>% 
  gather(key = "category", value = "word") %>% 
  filter(!is.na(word))

hot_words

## # A tibble: 37 x 2
##    category        word
##       <chr>       <chr>
##  1  conduct    behavior
##  2  conduct   behaviour
##  3  conduct     bribery
##  4  conduct     conduct
##  5  conduct  corruption
##  6  conduct     ethical
##  7  conduct      ethics
##  8  conduct trafficking
##  9  conduct      weapon
## 10  conduct      rights
## # ... with 27 more rows

Stop words are very common words of no interest in text analysis Load a few custom stop words and combine with a standard list of stop words.

crr_stop_words <-  
  read_excel("CRR Custom Words.xlsx", sheet = "stop_words") %>% 
  select(word = stop_words) %>% 
  mutate(lexicon = "CRR")

all_stop_words <- bind_rows(stop_words, crr_stop_words)

all_stop_words

## # A tibble: 1,158 x 2
##           word lexicon
##          <chr>   <chr>
##  1           a   SMART
##  2         a's   SMART
##  3        able   SMART
##  4       about   SMART
##  5       above   SMART
##  6   according   SMART
##  7 accordingly   SMART
##  8      across   SMART
##  9    actually   SMART
## 10       after   SMART
## # ... with 1,148 more rows
…
useful_words <- bind_rows(
  get_text_from_crr_pdf('2016'),
  get_text_from_crr_pdf('2015'),
  get_text_from_crr_pdf('2014'),
  get_text_from_crr_pdf('2013'),
  get_text_from_crr_pdf('2012'),
  get_text_from_crr_pdf('2011'),
  get_text_from_crr_pdf('2010'))

useful_words

## # A tibble: 119,407 x 3
##    pagenumber  year      word
##         <int> <chr>     <chr>
##  1          1  2016 corporate
##  2          2  2016 corporate
##  3          2  2016 corporate
##  4          2  2016 corporate
##  5          3  2016 corporate
##  6          3  2016 corporate
##  7          3  2016 corporate
##  8          3  2016 corporate
##  9          3  2016 corporate
## 10          5  2016 corporate
## # ... with 119,397 more rows
…
Look at the count of these top words by year.

top_words_by_year <- 
  useful_words %>% 
  count(year, word, sort = TRUE) %>% 
  mutate(ranking = min_rank(desc(n))) %>%
  ungroup() %>%
  semi_join(top_words, by = "word")

top_words_by_year

## # A tibble: 140 x 4
##     year      word     n ranking
##    <chr>     <chr> <int>   <int>
##  1  2011 employees   174       1
##  2  2012 employees   162       1
##  3  2013 employees   160       2
##  4  2014 employees   160       2
##  5  2015 employees   123       1
##  6  2010 employees   114       1
##  7  2016 employees   111       3
##  8  2014 financial   167       1
##  9  2013 financial   165       1
## 10  2012 financial   161       2
## # ... with 130 more rows
…
The analysis above was a bit dodgy since it dd not take into account the (slightly) different lengths of the documents. Calculate the proportions of each word

proportions <- 
  useful_words %>%
  count(year, word) %>%
  mutate(proportion = n / sum(n))  %>% 
  ungroup() %>% 
  select (-n) %>%
  spread(year, proportion) %>%
  left_join(hot_words, by = "word") %>% 
  mutate(category = ifelse(is.na(category), 'none', category))

proportions

## # A tibble: 8,428 x 9
##         word       `2010`       `2011`       `2012`       `2013`
##        <chr>        <dbl>        <dbl>        <dbl>        <dbl>
##  1        aa 1.298280e-04           NA           NA           NA
##  2       aaa 6.491399e-05 4.776233e-05 5.129784e-05 5.490584e-05
##  3       aae           NA           NA           NA           NA
##  4  aargauer 6.491399e-05           NA           NA 5.490584e-05
##  5        ab 6.491399e-05           NA           NA           NA
##  6 abatement           NA           NA 5.129784e-05           NA
##  7       abb           NA           NA           NA 5.490584e-05
##  8     abfal           NA           NA 5.129784e-05           NA
##  9 abilities 6.491399e-05 9.552467e-05           NA           NA
## 10   ability 6.491399e-04 7.641974e-04 9.233610e-04 1.043211e-03
## # ... with 8,418 more rows, and 4 more variables: `2014` <dbl>,
## #   `2015` <dbl>, `2016` <dbl>, category <chr>

# the proportion_comparison16 dataset  makes it possible to compare  the 2016 proportions 
# against the  earlier years. 
proportion_comparison16  <-
  proportions %>% gather(year, proportion, `2010`:`2015`)

proportion_comparison16

## # A tibble: 50,568 x 5
##         word       `2016` category  year   proportion
##        <chr>        <dbl>    <chr> <chr>        <dbl>
##  1        aa           NA     none  2010 1.298280e-04
##  2       aaa 7.251106e-05     none  2010 6.491399e-05
##  3       aae 7.251106e-05     none  2010           NA
##  4  aargauer 7.251106e-05     none  2010 6.491399e-05
##  5        ab           NA     none  2010 6.491399e-05
##  6 abatement           NA     none  2010           NA
##  7       abb           NA     none  2010           NA
##  8     abfal           NA     none  2010           NA
##  9 abilities           NA     none  2010 6.491399e-05
## 10   ability 1.305199e-03     none  2010 6.491399e-04
## # ... with 50,558 more rows
…
proportions_tdf

## # A tibble: 140 x 7
##     year       word     n           tf      idf       tf_idf      word2
##    <chr>      <chr> <int>        <dbl>    <dbl>        <dbl>     <fctr>
##  1  2015       sdgs    18 0.0014693878 1.252763 0.0018407946       sdgs
##  2  2011         qr    22 0.0010966552 1.252763 0.0013738490         qr
##  3  2016 referendum     9 0.0007004436 1.945910 0.0013630003 referendum
##  4  2011       scan    19 0.0009471113 1.252763 0.0011865060       scan
##  5  2010     kooaba     7 0.0004949095 1.945910 0.0009630494     kooaba
##  6  2016       bdcs     6 0.0004669624 1.945910 0.0009086669       bdcs
##  7  2016         fx     6 0.0004669624 1.945910 0.0009086669         fx
##  8  2016       tprm     6 0.0004669624 1.945910 0.0009086669       tprm
##  9  2011  assurance    14 0.0006978715 1.252763 0.0008742676  assurance
## 10  2010       bags     6 0.0004242081 1.945910 0.0008254709       bags
## # ... with 130 more rows
…
